\relax 
\catcode `"\active 
\select@language{brazilian}
\@writefile{toc}{\select@language{brazilian}}
\@writefile{lof}{\select@language{brazilian}}
\@writefile{lot}{\select@language{brazilian}}
\@writefile{toc}{\contentsline {section}{\numberline {1}Problema}{1}}
\@writefile{toc}{\contentsline {section}{\numberline {2}Resoluci\IeC {\'o}n}{1}}
\@writefile{toc}{\contentsline {subsection}{\numberline {2.1}Ejerc\IeC {\'\i }cio 1}{1}}
\@writefile{toc}{\contentsline {subsection}{\numberline {2.2}Ejerc\IeC {\'\i }cio 2 y 3}{1}}
\@writefile{toc}{\contentsline {subsubsection}{\numberline {2.2.1}Para empezar}{1}}
\@writefile{toc}{\contentsline {subsubsection}{\numberline {2.2.2}Provando $\sum _{k=1}^n cos(kx)$}{3}}
\@writefile{toc}{\contentsline {subsubsection}{\numberline {2.2.3}Provando $\sum _{k=1}^n sen(kx)$}{3}}
\@writefile{toc}{\contentsline {subsubsection}{\numberline {2.2.4}Dominio}{3}}
